Statistical Modeling in R
…
---

### Skovgaard-Olsen et al. (2016): No Pooling (By-Participant) I

```r
no_pooling_estimates <- dat %>% 
  group_by(p_id) %>% 
  do(broom::tidy(lm(if_A_then_B ~ B_given_A, .)))
## see: https://stackoverflow.com/a/30015869/289572

no_pooling_estimates
```

```
## # A tibble: 188 x 6
## # Groups:   p_id [94]
##    p_id           term        estimate std.error statistic p.value
##    <fct>          <chr>          <dbl>     <dbl>     <dbl>   <dbl>
##  1 102_P(if,then) (Intercept)    2.31      7.95     0.290  0.777  
##  2 102_P(if,then) B_given_A      0.547     0.161    3.41   0.00669
##  3 107_P(if,then) (Intercept)   -4.69     12.6     -0.372  0.718  
##  4 107_P(if,then) B_given_A      0.640     0.246    2.60   0.0265 
##  5 108_P(if,then) (Intercept)    9.72     19.8      0.491  0.634  
##  6 108_P(if,then) B_given_A      0.487     0.355    1.37   0.200  
##  7 110_P(if,then) (Intercept)    0.254    10.5      0.0242 0.981  
##  8 110_P(if,then) B_given_A      0.846     0.210    4.03   0.00241
##  9 111_P(if,then) (Intercept)    9.93     16.1      0.615  0.552  
## 10 111_P(if,then) B_given_A      0.401     0.248    1.61   0.138  
## # ... with 178 more rows
```
…
