Mixed Models in R
…
--

.pull-right[

```r
library("tibble") 
iris2 <- as_tibble(iris)
iris2
```

```
## # A tibble: 150 x 5
##    Sepal.Length Sepal.Width Petal.Length
##           <dbl>       <dbl>        <dbl>
##  1          5.1         3.5          1.4
##  2          4.9         3            1.4
##  3          4.7         3.2          1.3
##  4          4.6         3.1          1.5
##  5          5           3.6          1.4
##  6          5.4         3.9          1.7
##  7          4.6         3.4          1.4
##  8          5           3.4          1.5
##  9          4.4         2.9          1.4
## 10          4.9         3.1          1.5
## # ... with 140 more rows, and 2 more variables:
## #   Petal.Width <dbl>, Species <fct>
```
…
